<?xml version="1.0" standalone="no"?>
<!DOCTYPE svg PUBLIC "-//W3C//DTD SVG 20010904//EN"
 "http://www.w3.org/TR/2001/REC-SVG-20010904/DTD/svg10.dtd">
<svg version="1.0" xmlns="http://www.w3.org/2000/svg"
 width="3264.000000pt" height="1461.000000pt" viewBox="0 0 3264.000000 1461.000000"
 preserveAspectRatio="xMidYMid meet">
<metadata>
Created by potrace 1.16, written by Peter Selinger 2001-2019
</metadata>
<g transform="translate(0.000000,1461.000000) scale(0.100000,-0.100000)"
fill="#000000" stroke="none">
<path d="M17340 14535 c-7 -8 -18 -15 -26 -15 -21 0 -81 -66 -104 -113 -11
-23 -29 -55 -40 -72 -10 -16 -31 -53 -45 -82 -15 -29 -36 -62 -46 -74 -10 -12
-19 -28 -19 -36 0 -7 -3 -13 -7 -13 -5 0 -17 -18 -27 -40 -11 -22 -23 -40 -28
-40 -4 0 -8 -5 -8 -10 0 -10 -78 -130 -91 -140 -3 -3 -14 -21 -24 -40 -10 -19
-21 -37 -24 -40 -4 -3 -28 -37 -54 -76 -26 -39 -55 -79 -65 -90 -9 -10 -26
-32 -36 -49 -11 -16 -37 -51 -58 -76 -21 -25 -38 -49 -38 -53 0 -5 -10 -18
-23 -30 -12 -12 -43 -48 -67 -81 -24 -33 -46 -62 -49 -65 -3 -3 -32 -37 -64
-77 -32 -39 -61 -73 -65 -75 -4 -2 -26 -28 -49 -58 -23 -31 -71 -86 -106 -123
-36 -37 -104 -111 -153 -164 -141 -155 -556 -563 -571 -563 -2 0 -33 -29 -68
-65 -36 -36 -69 -65 -74 -65 -5 0 -11 -4 -13 -9 -1 -4 -34 -35 -73 -67 -38
-32 -72 -61 -75 -65 -4 -6 -131 -112 -237 -199 -17 -14 -48 -39 -69 -57 -81
-66 -154 -123 -159 -123 -5 0 -46 -34 -77 -62 -10 -10 -22 -18 -28 -18 -5 0
-10 -4 -10 -10 0 -5 -7 -10 -15 -10 -7 0 -18 -6 -22 -13 -8 -14 -257 -197
-267 -197 -3 0 -17 -11 -32 -25 -15 -14 -32 -25 -38 -25 -6 0 -23 -10 -36 -22
-36 -32 -119 -88 -130 -88 -6 0 -10 -4 -10 -10 0 -5 -7 -10 -15 -10 -9 0 -18
-7 -21 -15 -4 -8 -13 -15 -21 -15 -8 0 -21 -6 -28 -12 -35 -31 -45 -38 -59
-38 -7 0 -16 -7 -20 -15 -3 -8 -14 -15 -25 -15 -11 0 -23 -4 -26 -10 -3 -5
-19 -10 -34 -10 -16 0 -34 -7 -41 -15 -7 -8 -21 -15 -31 -15 -11 0 -27 -4 -37
-9 -41 -21 -94 -41 -107 -41 -7 0 -28 -8 -47 -17 -62 -31 -68 -33 -92 -33 -13
0 -29 -7 -36 -15 -7 -8 -23 -15 -36 -15 -12 0 -26 -4 -29 -10 -3 -5 -16 -10
-29 -10 -12 0 -31 -7 -42 -15 -10 -8 -27 -15 -36 -15 -9 0 -31 -8 -50 -17 -62
-31 -68 -33 -92 -33 -13 0 -29 -7 -36 -15 -7 -8 -23 -15 -36 -15 -12 0 -26 -4
-29 -10 -3 -5 -16 -10 -28 -10 -12 0 -31 -7 -41 -15 -11 -8 -29 -15 -40 -15
-12 0 -30 -7 -40 -15 -11 -8 -30 -15 -42 -15 -13 0 -26 -4 -29 -10 -3 -5 -17
-10 -29 -10 -13 0 -29 -7 -36 -15 -7 -8 -23 -15 -36 -15 -12 0 -26 -4 -29 -10
-3 -5 -16 -10 -29 -10 -12 0 -31 -7 -42 -15 -10 -8 -28 -15 -39 -15 -11 0 -29
-7 -39 -15 -11 -8 -30 -15 -42 -15 -13 0 -26 -4 -29 -10 -3 -5 -17 -10 -29
-10 -13 0 -29 -7 -36 -15 -7 -8 -23 -15 -36 -15 -12 0 -26 -4 -29 -10 -3 -5
-19 -10 -34 -10 -16 0 -34 -7 -41 -15 -7 -8 -20 -15 -30 -15 -10 0 -31 -7 -46
-15 -16 -8 -37 -15 -46 -15 -9 0 -20 -4 -23 -10 -3 -5 -17 -10 -29 -10 -13 0
-29 -7 -36 -15 -7 -8 -23 -15 -36 -15 -12 0 -26 -4 -29 -10 -3 -5 -19 -10 -34
-10 -16 0 -34 -7 -41 -15 -7 -8 -23 -15 -36 -15 -12 0 -26 -4 -29 -10 -3 -5
-14 -10 -23 -10 -9 0 -30 -7 -46 -15 -15 -8 -36 -15 -46 -15 -10 0 -23 -7 -30
-15 -7 -8 -23 -15 -36 -15 -12 0 -26 -4 -29 -10 -3 -5 -15 -10 -26 -10 -18 0
-149 -87 -149 -100 0 -3 -12 -19 -27 -36 -39 -42 -83 -133 -83 -170 0 -16 -5
-35 -11 -41 -16 -16 5 -233 22 -233 5 0 9 -9 9 -20 0 -15 -9 -22 -30 -27 -17
-3 -33 -10 -36 -14 -3 -5 -16 -9 -30 -9 -14 0 -32 -7 -40 -15 -9 -8 -26 -15
-39 -15 -13 0 -27 -4 -30 -10 -3 -5 -16 -10 -28 -10 -12 0 -31 -7 -41 -15 -11
-8 -27 -15 -36 -15 -16 0 -59 -17 -102 -41 -10 -5 -26 -9 -35 -9 -10 0 -27 -7
-37 -15 -11 -8 -30 -15 -43 -15 -13 0 -23 -4 -23 -10 0 -5 -7 -10 -16 -10 -39
0 -163 -120 -197 -190 -12 -25 -25 -46 -29 -48 -5 -2 -8 -19 -8 -37 0 -19 -4
-37 -10 -40 -5 -3 -10 -46 -10 -96 0 -53 4 -89 10 -89 6 0 10 -15 10 -32 0
-18 7 -42 15 -52 8 -11 15 -28 15 -38 0 -18 3 -25 33 -86 9 -19 17 -42 17 -52
0 -10 5 -22 10 -25 6 -3 10 -17 10 -30 0 -13 7 -30 15 -39 8 -8 15 -28 15 -45
0 -16 6 -34 14 -38 12 -7 19 -27 33 -95 3 -15 11 -33 19 -39 8 -6 14 -24 14
-40 0 -15 5 -31 10 -34 6 -3 10 -15 10 -26 0 -11 7 -27 15 -35 8 -9 15 -24 15
-34 0 -10 7 -31 15 -46 8 -16 15 -37 15 -46 0 -9 5 -20 10 -23 6 -3 10 -17 10
-29 0 -13 7 -29 15 -36 8 -7 15 -25 15 -41 0 -16 5 -29 10 -29 6 0 10 -13 10
-29 0 -16 7 -34 15 -41 8 -7 15 -24 15 -39 0 -15 5 -32 12 -39 15 -15 38 -80
38 -108 0 -12 7 -24 15 -28 9 -3 15 -19 15 -41 0 -19 5 -35 10 -35 6 0 10 -9
10 -21 0 -11 7 -27 15 -35 8 -9 15 -29 15 -45 0 -16 4 -29 10 -29 5 0 12 -16
16 -35 3 -19 10 -38 15 -41 5 -3 9 -16 9 -29 0 -13 7 -30 15 -39 8 -8 15 -26
15 -40 0 -14 5 -26 10 -26 6 0 10 -13 10 -29 0 -16 7 -34 15 -41 8 -7 15 -25
15 -40 0 -15 7 -33 15 -40 9 -7 14 -19 11 -26 -3 -7 2 -18 10 -24 8 -7 14 -20
14 -30 0 -10 7 -23 15 -30 8 -7 15 -17 15 -23 0 -15 117 -125 140 -132 11 -4
20 -11 20 -16 0 -5 9 -9 19 -9 11 0 22 -4 25 -9 4 -5 25 -12 49 -16 23 -4 47
-12 54 -17 23 -18 221 8 248 33 5 5 19 9 31 9 12 0 27 7 34 15 7 8 23 15 36
15 12 0 26 4 29 10 3 6 19 10 34 10 16 0 34 7 41 15 7 8 23 15 36 15 12 0 26
5 29 10 3 6 14 10 23 10 9 0 30 7 46 15 15 8 36 15 46 15 10 0 23 7 30 15 7 8
23 15 36 15 12 0 26 5 29 10 10 16 38 12 31 -5 -3 -8 1 -21 9 -29 8 -8 15 -23
15 -34 0 -11 7 -22 15 -26 8 -3 15 -12 15 -21 0 -18 118 -135 137 -135 7 0 13
-4 13 -10 0 -5 6 -10 14 -10 7 0 19 -7 26 -15 7 -8 27 -15 46 -15 18 0 36 -4
39 -10 8 -13 222 -13 230 0 3 6 19 10 34 10 16 0 34 7 41 15 7 8 23 15 36 15
12 0 26 4 29 10 3 5 16 10 28 10 12 0 31 7 41 15 11 8 27 15 36 15 16 0 59 17
102 41 31 16 72 10 91 -14 32 -41 87 -126 87 -136 0 -6 6 -14 14 -18 7 -4 21
-24 31 -43 10 -19 21 -37 24 -40 9 -7 91 -129 91 -135 0 -3 7 -13 16 -22 21
-25 84 -121 84 -129 0 -4 7 -14 15 -23 9 -9 35 -45 58 -81 23 -36 44 -67 48
-70 3 -3 14 -20 25 -39 10 -19 25 -42 32 -50 25 -31 82 -121 82 -130 0 -6 6
-14 14 -18 7 -4 22 -23 32 -42 26 -47 106 -170 127 -196 10 -12 147 -218 162
-243 29 -48 91 -137 98 -140 4 -2 7 -7 7 -12 0 -11 85 -135 112 -164 13 -13
37 -39 54 -58 39 -42 107 -98 146 -120 17 -10 36 -22 42 -28 5 -5 18 -10 27
-10 9 0 22 -7 29 -15 7 -8 23 -15 36 -15 12 0 26 -4 29 -10 3 -5 18 -10 33
-10 15 -1 38 -7 52 -15 37 -21 342 -21 360 0 7 8 27 15 46 15 18 0 36 5 39 10
3 6 17 10 29 10 13 0 29 7 36 15 7 8 20 15 30 15 10 0 23 7 30 15 7 8 18 15
24 15 26 1 246 199 246 222 0 5 11 24 25 42 14 18 25 38 25 43 0 6 7 16 15 23
8 7 15 23 15 36 0 12 7 29 15 38 8 8 15 25 15 39 0 13 7 38 16 56 13 26 15 62
12 211 -2 126 -7 183 -15 192 -7 6 -13 24 -13 39 0 15 -7 32 -15 39 -8 7 -15
23 -15 36 0 13 -4 24 -10 24 -5 0 -10 9 -10 20 0 10 -6 23 -13 27 -7 4 -21 25
-32 46 -11 20 -23 37 -27 37 -5 0 -8 6 -8 13 0 8 -11 27 -25 43 -14 16 -25 34
-25 39 0 6 -14 25 -30 44 -17 18 -30 40 -30 47 0 8 -3 14 -8 14 -4 0 -16 17
-27 37 -11 20 -30 48 -42 61 -13 14 -23 30 -23 37 0 7 -6 18 -14 24 -8 7 -22
27 -31 46 -9 19 -20 35 -25 35 -6 0 -10 5 -10 12 0 6 -11 26 -25 44 -14 18
-25 35 -25 39 0 3 -18 30 -40 60 -22 30 -40 59 -40 65 0 5 -3 10 -8 10 -4 0
-16 17 -27 37 -11 21 -25 42 -32 46 -7 4 -13 12 -13 18 0 11 -81 133 -92 137
-5 2 -8 10 -8 17 0 8 -11 26 -25 41 -14 15 -25 32 -25 39 0 7 -6 18 -14 24 -8
7 -22 27 -31 46 -9 19 -20 35 -25 35 -6 0 -10 7 -10 15 0 8 -4 15 -10 15 -5 0
-10 6 -10 14 0 8 -6 21 -13 28 -20 21 -97 137 -97 147 0 5 -7 11 -15 15 -24 9
-17 26 9 26 14 0 28 5 31 10 3 6 16 10 29 10 12 0 31 7 42 15 10 8 29 15 40
15 12 0 27 7 34 15 7 8 23 15 36 15 12 0 26 5 29 10 3 6 21 10 39 10 19 0 39
6 45 14 8 10 41 16 94 20 176 11 309 25 320 35 7 5 71 11 142 12 72 1 136 6
143 12 7 5 104 12 220 14 114 2 216 9 227 14 25 12 870 5 1170 -9 116 -6 223
-15 238 -21 16 -6 77 -11 136 -11 65 0 111 -4 118 -11 6 -6 60 -15 120 -20
248 -20 294 -26 305 -37 7 -7 40 -12 79 -12 37 0 71 -4 74 -10 3 -5 29 -10 56
-10 27 0 66 -7 86 -15 19 -8 54 -15 77 -15 22 -1 52 -7 66 -15 14 -8 44 -14
67 -15 23 0 45 -4 48 -10 3 -5 25 -10 48 -10 23 -1 53 -7 67 -15 14 -8 42 -14
62 -15 20 0 40 -4 43 -10 3 -6 24 -10 45 -10 21 0 45 -7 54 -15 8 -8 28 -15
44 -15 16 0 43 -7 58 -15 16 -8 41 -15 56 -15 15 0 30 -4 33 -10 3 -5 21 -10
39 -10 19 0 39 -7 46 -15 7 -8 27 -15 46 -15 18 0 36 -5 39 -10 3 -6 16 -10
29 -10 12 0 31 -7 42 -15 10 -8 30 -15 44 -15 14 0 34 -7 44 -15 11 -8 30 -15
42 -15 13 0 26 -4 29 -10 3 -5 17 -10 29 -10 13 0 29 -6 35 -14 18 -22 157
-44 174 -27 6 6 22 11 35 11 31 0 129 77 138 108 3 12 10 22 15 22 5 0 9 51 9
114 0 88 -3 116 -15 126 -8 7 -12 16 -9 21 3 5 -2 19 -10 31 -9 12 -16 33 -16
46 0 13 -7 30 -15 38 -8 9 -15 26 -15 39 0 13 -4 27 -10 30 -5 3 -10 15 -10
26 0 11 -7 27 -15 35 -8 9 -15 29 -15 45 0 16 -4 29 -10 29 -5 0 -10 10 -10
23 0 13 -7 32 -15 43 -8 10 -15 31 -15 45 0 15 -7 32 -15 39 -8 7 -15 21 -15
31 0 10 -4 21 -10 24 -5 3 -10 21 -10 40 0 20 -6 35 -15 39 -9 3 -15 18 -15
35 0 16 -4 33 -10 36 -5 3 -10 15 -10 26 0 11 -7 27 -15 35 -8 9 -15 29 -15
45 0 16 -4 29 -10 29 -5 0 -13 18 -16 40 -4 22 -10 40 -15 40 -5 0 -9 10 -9
23 0 13 -7 32 -15 43 -8 10 -15 29 -15 42 0 12 -4 22 -10 22 -5 0 -10 13 -10
29 0 16 -7 34 -15 41 -8 7 -15 25 -15 40 0 15 -7 33 -15 40 -9 7 -14 19 -11
26 3 8 -1 20 -9 28 -8 8 -15 28 -15 44 0 17 -6 32 -15 36 -9 3 -15 18 -15 35
0 16 -4 33 -10 36 -5 3 -10 16 -10 28 0 12 -7 31 -15 41 -8 11 -15 30 -15 43
0 13 -4 23 -10 23 -5 0 -13 18 -16 40 -4 22 -10 40 -15 40 -5 0 -9 10 -9 23 0
13 -7 32 -15 43 -8 10 -15 29 -15 42 0 12 -4 22 -10 22 -5 0 -10 13 -10 29 0
16 -7 34 -15 41 -8 7 -15 27 -15 45 0 21 -6 35 -16 39 -9 3 -14 13 -10 21 3 8
-1 21 -9 29 -8 8 -15 28 -15 44 0 17 -6 32 -15 36 -9 3 -15 18 -15 35 0 16 -4
33 -10 36 -5 3 -10 16 -10 28 0 12 -7 31 -15 41 -8 11 -15 30 -15 43 0 13 -4
23 -9 23 -5 0 -12 18 -16 40 -4 22 -11 40 -16 40 -5 0 -9 10 -9 23 0 13 -7 32
-15 43 -8 10 -15 29 -15 41 0 12 -4 25 -10 28 -5 3 -10 17 -10 29 0 13 -7 29
-15 36 -8 7 -15 25 -15 40 0 15 -7 33 -15 40 -9 7 -13 20 -10 27 3 8 -2 24
-10 36 -8 12 -15 30 -15 40 0 10 -7 25 -15 33 -8 9 -15 26 -15 39 0 13 -4 27
-10 30 -5 3 -10 16 -10 28 0 12 -7 31 -15 41 -8 11 -15 30 -15 42 0 12 -4 24
-9 26 -5 2 -12 19 -15 38 -3 19 -10 36 -15 38 -6 2 -11 14 -11 26 0 12 -7 31
-15 42 -8 10 -15 29 -15 41 0 12 -4 25 -10 28 -5 3 -10 16 -10 29 0 12 -7 31
-15 42 -8 10 -15 31 -15 47 0 15 -4 27 -10 27 -5 0 -10 10 -10 23 0 12 -7 31
-15 41 -8 11 -15 30 -15 42 0 12 -5 24 -11 26 -5 2 -12 19 -15 38 -3 19 -10
36 -15 38 -5 2 -9 14 -9 27 0 12 -7 28 -15 35 -8 7 -15 25 -15 41 0 15 -4 31
-10 34 -5 3 -10 20 -10 36 0 17 -6 32 -15 35 -8 4 -15 16 -15 28 0 12 -7 31
-15 42 -8 10 -15 29 -15 41 0 12 -4 25 -10 28 -5 3 -10 19 -10 34 0 16 -7 34
-15 41 -8 7 -15 25 -15 41 0 16 -4 29 -10 29 -5 0 -10 10 -10 23 0 12 -7 31
-15 41 -8 11 -15 27 -15 37 0 9 -7 30 -15 45 -8 16 -15 37 -15 47 0 9 -4 17
-10 17 -5 0 -10 10 -10 23 0 12 -7 31 -15 41 -8 11 -15 30 -15 42 0 13 -4 26
-10 29 -5 3 -10 16 -10 29 0 12 -7 31 -15 42 -8 10 -15 28 -15 39 0 11 -7 28
-15 38 -7 11 -11 25 -9 31 3 7 -2 19 -11 26 -8 7 -15 25 -15 40 0 15 -7 33
-15 40 -8 7 -15 23 -15 36 0 24 -2 31 -34 91 -9 17 -16 40 -16 51 0 12 -4 23
-9 26 -5 3 -12 22 -15 41 -4 19 -11 35 -16 35 -6 0 -10 12 -10 26 0 14 -7 32
-15 40 -8 9 -15 26 -15 39 0 13 -4 27 -10 30 -5 3 -10 19 -10 34 0 16 -7 34
-15 41 -8 7 -15 23 -15 36 0 12 -4 26 -10 29 -5 3 -10 17 -10 29 0 13 -7 29
-15 36 -8 7 -15 25 -15 40 0 15 -7 33 -15 40 -8 7 -15 25 -15 41 0 15 -4 31
-10 34 -5 3 -10 15 -10 26 0 11 -7 27 -15 35 -8 9 -15 26 -15 39 0 13 -4 27
-10 30 -5 3 -10 17 -10 30 0 13 -7 30 -15 39 -8 8 -15 24 -15 36 0 12 -7 28
-15 36 -8 9 -15 26 -15 39 0 13 -4 27 -10 30 -5 3 -10 19 -10 34 0 16 -6 34
-14 40 -8 6 -16 24 -19 39 -14 68 -21 88 -33 95 -8 4 -14 20 -14 35 0 15 -7
36 -15 46 -8 11 -15 30 -15 42 0 13 -4 26 -10 29 -5 3 -10 17 -10 29 0 13 -7
29 -15 36 -8 7 -15 23 -15 36 0 12 -4 26 -10 29 -5 3 -10 19 -10 34 0 16 -7
34 -15 41 -8 7 -15 21 -15 32 0 10 -7 30 -16 43 -9 13 -13 28 -10 33 3 6 -1
15 -9 22 -8 7 -15 25 -15 40 0 15 -7 33 -15 40 -8 7 -15 25 -15 41 0 15 -4 31
-10 34 -5 3 -10 17 -10 30 0 12 -7 25 -15 29 -9 3 -15 18 -15 35 0 16 -4 33
-10 36 -5 3 -10 14 -10 23 0 9 -7 30 -15 46 -8 15 -15 36 -15 46 0 10 -7 23
-15 30 -8 7 -15 25 -15 41 0 16 -4 29 -10 29 -5 0 -10 13 -10 29 0 16 -7 34
-15 41 -8 7 -15 23 -15 36 0 13 -4 24 -9 24 -5 0 -13 9 -16 21 -8 24 -64 78
-81 79 -6 0 -17 7 -24 15 -10 11 -35 15 -110 15 -75 0 -100 -4 -110 -15z m60
-849 c0 -14 7 -31 15 -40 8 -8 15 -26 15 -40 0 -14 5 -28 10 -31 6 -3 10 -16
10 -28 0 -12 7 -31 15 -41 8 -11 15 -32 15 -47 0 -15 7 -29 16 -33 9 -3 14
-12 11 -19 -3 -7 1 -21 9 -32 8 -10 14 -30 14 -43 0 -13 7 -30 15 -38 8 -9 15
-29 15 -45 0 -16 5 -29 10 -29 6 0 10 -8 10 -17 0 -10 7 -31 15 -47 8 -15 15
-37 15 -47 0 -11 4 -19 10 -19 5 0 12 -16 16 -35 3 -19 10 -38 15 -41 5 -3 9
-19 9 -35 0 -17 6 -32 15 -35 8 -4 15 -19 15 -34 0 -16 5 -32 10 -35 6 -3 10
-16 10 -28 0 -12 7 -31 15 -41 8 -11 15 -32 15 -47 0 -15 7 -29 16 -33 9 -3
14 -12 11 -19 -3 -7 1 -21 9 -32 8 -10 14 -30 14 -43 0 -13 7 -30 15 -38 8 -9
15 -29 15 -45 0 -16 5 -29 10 -29 6 0 10 -13 10 -29 0 -16 7 -34 15 -41 8 -7
15 -23 15 -36 0 -13 5 -24 10 -24 6 0 10 -8 10 -17 0 -10 7 -31 15 -47 8 -15
15 -38 15 -51 0 -12 7 -28 15 -35 8 -7 15 -23 15 -36 0 -12 5 -26 10 -29 6 -3
10 -17 10 -31 0 -14 7 -32 15 -40 8 -9 15 -28 15 -44 0 -15 6 -30 14 -33 8 -3
12 -14 10 -25 -3 -10 2 -24 10 -31 9 -8 16 -24 16 -38 0 -13 7 -31 15 -39 8
-9 15 -29 15 -45 0 -16 5 -29 10 -29 6 0 10 -13 10 -29 0 -16 7 -36 15 -45 8
-8 15 -24 15 -35 0 -12 5 -21 10 -21 6 0 10 -13 10 -29 0 -16 7 -36 15 -45 8
-8 15 -26 15 -39 0 -14 7 -30 15 -37 8 -7 15 -23 15 -36 0 -12 5 -26 10 -29 6
-3 10 -17 10 -31 0 -14 7 -32 15 -40 8 -9 15 -29 15 -45 0 -16 5 -29 10 -29 6
0 10 -10 10 -23 0 -13 7 -32 15 -43 8 -10 15 -29 15 -41 0 -13 4 -23 10 -23 5
0 13 -18 16 -40 4 -22 10 -40 15 -40 5 0 9 -13 9 -29 0 -16 7 -36 15 -45 8 -8
15 -24 15 -35 0 -12 5 -21 10 -21 6 0 10 -13 10 -29 0 -16 7 -36 15 -45 8 -8
15 -26 15 -39 0 -14 7 -30 15 -37 8 -7 15 -19 15 -28 0 -21 19 -80 36 -114 8
-14 14 -36 14 -47 0 -12 5 -21 10 -21 6 0 10 -10 10 -23 0 -13 7 -32 15 -43 8
-10 15 -29 15 -41 0 -13 4 -23 9 -23 5 0 12 -18 16 -40 4 -22 11 -40 16 -40 5
0 9 -13 9 -29 0 -16 7 -36 15 -45 8 -8 15 -24 15 -35 0 -11 5 -23 10 -26 6 -3
10 -20 10 -36 0 -17 6 -32 15 -35 8 -4 15 -18 15 -34 0 -15 7 -33 15 -40 9 -7
13 -20 10 -27 -3 -8 2 -24 10 -36 8 -12 15 -31 15 -42 0 -11 7 -29 15 -39 8
-11 15 -30 15 -43 0 -13 5 -23 10 -23 6 0 10 -10 10 -23 0 -13 7 -32 15 -43 8
-10 15 -29 15 -41 0 -13 4 -23 9 -23 5 0 12 -18 16 -40 4 -22 11 -40 16 -40 5
0 9 -16 9 -35 0 -18 6 -38 14 -42 12 -7 19 -27 33 -95 3 -15 11 -33 19 -39 8
-6 14 -22 14 -35 0 -24 2 -31 34 -91 9 -17 16 -39 16 -50 0 -10 7 -27 15 -37
8 -11 15 -28 15 -38 0 -18 3 -25 33 -86 9 -19 17 -42 17 -52 0 -10 4 -21 9
-24 5 -3 12 -22 15 -41 4 -19 11 -35 16 -35 6 0 10 -16 10 -35 0 -18 6 -38 14
-42 12 -7 19 -27 33 -95 3 -15 11 -33 19 -39 8 -6 14 -24 14 -40 0 -15 5 -31
10 -34 6 -3 10 -15 10 -26 0 -11 7 -27 15 -35 8 -9 15 -25 15 -37 0 -12 7 -31
15 -41 8 -11 15 -28 15 -38 0 -18 3 -25 33 -86 9 -19 17 -42 17 -52 0 -10 5
-22 10 -25 6 -3 10 -16 10 -29 0 -12 7 -31 15 -42 8 -10 15 -31 15 -46 0 -15
6 -31 14 -35 12 -7 19 -27 33 -95 3 -15 11 -33 19 -39 8 -6 14 -24 14 -40 0
-15 5 -31 10 -34 6 -3 10 -15 10 -26 0 -11 7 -27 15 -35 8 -9 15 -24 15 -34 0
-10 7 -31 15 -46 8 -16 15 -37 15 -46 0 -9 5 -20 10 -23 6 -3 10 -17 10 -30 0
-13 7 -30 15 -39 8 -8 15 -22 15 -31 0 -8 7 -27 16 -41 20 -29 11 -43 -16 -26
-11 7 -32 12 -48 12 -15 0 -37 7 -48 15 -10 8 -36 15 -56 15 -20 0 -40 5 -43
10 -3 6 -18 10 -33 10 -15 0 -40 7 -56 15 -15 8 -45 15 -65 15 -20 0 -45 7
-55 15 -11 8 -39 15 -62 15 -24 0 -46 5 -49 10 -3 6 -24 10 -46 10 -22 0 -50
5 -62 12 -21 12 -66 20 -204 36 -34 4 -68 13 -75 20 -7 7 -38 12 -71 12 -32 0
-68 5 -79 11 -23 13 -139 28 -268 36 -47 2 -91 10 -98 16 -15 12 -172 26 -386
33 -92 3 -146 10 -160 19 -16 10 -82 13 -285 15 -150 0 -272 5 -283 11 -30 16
-1092 -9 -1118 -26 -8 -6 -82 -13 -165 -17 -82 -5 -189 -10 -237 -14 l-87 -5
-6 28 c-4 15 -13 40 -21 55 -8 14 -14 35 -14 46 0 12 -4 24 -10 27 -5 3 -10
19 -10 34 0 16 -7 34 -15 41 -8 7 -15 25 -15 41 0 15 -4 31 -10 34 -5 3 -10
14 -10 24 0 10 -7 24 -15 31 -8 7 -15 24 -15 39 0 14 -7 35 -15 45 -8 11 -15
30 -15 43 0 13 -4 23 -10 23 -5 0 -10 10 -10 23 0 12 -7 31 -15 41 -8 11 -15
30 -15 42 0 13 -4 25 -9 28 -5 3 -12 22 -15 41 -4 19 -11 35 -16 35 -6 0 -10
10 -10 23 0 12 -7 31 -15 41 -8 11 -15 30 -15 42 0 13 -4 26 -10 29 -5 3 -10
19 -10 34 0 16 -7 34 -15 41 -8 7 -15 25 -15 41 0 15 -4 31 -10 34 -5 3 -10
17 -10 30 0 12 -7 25 -15 29 -9 3 -15 19 -15 41 0 19 -4 35 -10 35 -5 0 -12
16 -16 35 -3 19 -10 38 -15 41 -5 3 -9 14 -9 25 0 11 -7 27 -15 35 -8 9 -15
26 -15 39 0 13 -4 27 -10 30 -5 3 -10 20 -10 36 0 17 -6 32 -15 35 -8 4 -15
17 -15 31 0 14 -7 39 -16 56 -32 60 -34 67 -34 91 0 13 -7 29 -15 36 -8 7 -15
25 -15 41 0 15 -4 31 -10 34 -5 3 -10 17 -10 30 0 12 -7 25 -15 29 -9 3 -15
19 -15 41 0 19 -4 35 -10 35 -5 0 -12 16 -16 35 -3 19 -10 38 -15 41 -5 3 -9
16 -9 28 0 13 -7 29 -15 36 -8 7 -15 23 -15 36 0 12 -4 26 -10 29 -5 3 -10 20
-10 36 0 17 -6 32 -15 35 -8 4 -15 18 -15 33 0 15 -7 37 -16 49 -8 12 -13 26
-10 31 3 5 -1 14 -9 21 -8 7 -15 25 -15 40 0 15 -7 33 -15 40 -8 7 -15 25 -15
41 0 15 -4 31 -10 34 -5 3 -10 15 -10 26 0 11 -7 27 -15 35 -8 9 -15 29 -15
45 0 16 -4 29 -10 29 -5 0 -10 8 -10 18 0 9 -7 30 -15 46 -8 15 -15 34 -15 41
0 8 -6 26 -14 42 -8 15 -20 42 -26 58 -7 17 -16 37 -20 46 -7 13 2 24 35 48
24 17 48 31 54 31 6 0 11 4 11 8 0 4 18 19 40 32 22 14 40 28 40 33 0 4 6 7
14 7 8 0 16 7 20 15 3 8 12 15 21 15 8 0 15 5 15 10 0 6 6 10 13 10 6 0 32 18
57 40 25 22 51 40 58 40 6 0 12 4 12 8 0 5 33 31 73 59 70 50 124 92 157 123
9 8 34 28 55 44 22 16 45 34 50 40 6 6 35 29 65 51 30 22 62 47 71 55 73 69
98 90 103 90 6 0 44 31 85 70 14 14 44 40 66 59 42 35 122 107 290 259 175
157 529 515 660 666 33 38 71 81 85 95 14 14 45 50 70 80 24 30 62 73 83 95
22 23 57 66 80 96 22 30 43 57 47 60 3 3 21 25 40 50 19 25 37 47 41 50 17 14
219 290 219 299 0 6 3 11 8 11 4 0 23 24 42 52 19 29 45 64 58 78 12 14 22 30
22 37 0 6 3 13 8 15 13 6 72 98 72 113 0 8 5 15 10 15 6 0 10 -11 10 -24z
m-3400 -3223 c0 -16 7 -37 15 -47 8 -11 15 -29 15 -41 0 -12 3 -25 7 -29 10
-10 43 -98 43 -114 0 -7 7 -20 15 -28 8 -9 15 -26 15 -39 0 -13 5 -27 10 -30
6 -3 10 -17 10 -30 0 -13 7 -30 15 -39 8 -8 15 -25 15 -38 0 -13 7 -32 15 -42
8 -11 15 -28 15 -38 0 -10 5 -18 10 -18 6 0 10 -16 10 -35 0 -22 6 -38 15 -41
8 -4 15 -13 15 -22 0 -21 19 -80 36 -114 8 -14 14 -38 14 -52 0 -14 3 -26 8
-26 7 0 28 -52 39 -100 4 -13 12 -31 20 -38 7 -7 13 -24 13 -37 0 -13 5 -27
10 -30 6 -3 10 -19 10 -34 0 -16 7 -34 15 -41 8 -7 15 -23 15 -36 0 -12 5 -26
10 -29 6 -3 10 -17 10 -29 0 -13 7 -29 15 -36 8 -7 15 -27 15 -45 0 -20 6 -35
15 -39 8 -3 15 -16 15 -30 0 -14 5 -28 10 -31 6 -3 10 -17 10 -31 0 -14 7 -32
15 -40 8 -9 15 -29 15 -45 0 -16 3 -29 8 -29 8 0 30 -59 39 -102 3 -16 9 -28
14 -28 4 0 11 -16 15 -35 3 -19 10 -38 15 -41 5 -3 9 -18 9 -33 0 -16 7 -34
15 -41 8 -7 15 -23 15 -36 0 -12 5 -26 10 -29 6 -3 10 -17 10 -29 0 -13 7 -29
15 -36 8 -7 15 -27 15 -45 0 -21 6 -35 16 -39 10 -4 13 -13 9 -25 -3 -10 1
-24 10 -31 8 -7 15 -23 15 -37 0 -13 7 -31 15 -39 8 -9 15 -29 15 -45 0 -16 5
-29 10 -29 6 0 10 -8 10 -17 0 -10 7 -31 15 -47 8 -15 15 -37 15 -47 0 -11 4
-19 10 -19 5 0 12 -16 16 -35 3 -19 10 -38 15 -41 5 -3 9 -18 9 -33 0 -16 7
-34 15 -41 8 -7 15 -22 15 -34 0 -12 5 -27 11 -33 18 -18 3 -43 -25 -43 -14 0
-28 -4 -31 -10 -3 -5 -19 -10 -34 -10 -16 0 -34 -7 -41 -15 -7 -8 -23 -15 -36
-15 -12 0 -26 -4 -29 -10 -3 -5 -16 -10 -28 -10 -12 0 -31 -7 -41 -15 -11 -8
-28 -15 -37 -15 -10 0 -32 -8 -51 -17 -62 -31 -68 -33 -92 -33 -13 0 -29 -7
-36 -15 -7 -8 -23 -15 -36 -15 -12 0 -26 -4 -29 -10 -3 -5 -19 -10 -34 -10
-16 0 -34 -7 -41 -15 -7 -8 -22 -15 -34 -15 -11 0 -30 -7 -40 -15 -11 -8 -30
-15 -42 -15 -13 0 -26 -4 -29 -10 -3 -5 -17 -10 -29 -10 -13 0 -29 -7 -36 -15
-7 -8 -23 -15 -36 -15 -12 0 -26 -4 -29 -10 -3 -5 -16 -10 -29 -10 -12 0 -31
-7 -42 -15 -10 -8 -26 -15 -35 -15 -9 0 -30 -7 -45 -15 -16 -8 -37 -15 -46
-15 -9 0 -20 -4 -23 -10 -3 -5 -17 -10 -29 -10 -13 0 -29 -7 -36 -15 -7 -8
-23 -15 -36 -15 -12 0 -26 -4 -29 -10 -3 -5 -19 -10 -34 -10 -16 0 -34 -7 -41
-15 -7 -8 -23 -15 -36 -15 -12 0 -26 -4 -29 -10 -3 -5 -14 -10 -23 -10 -9 0
-30 -7 -46 -15 -15 -8 -36 -15 -46 -15 -10 0 -23 -7 -30 -15 -7 -8 -23 -15
-36 -15 -12 0 -26 -4 -29 -10 -3 -5 -21 -10 -39 -10 -19 0 -39 -7 -46 -15 -7
-8 -21 -15 -31 -15 -10 0 -21 -4 -24 -10 -3 -5 -16 -10 -29 -10 -12 0 -31 -7
-42 -15 -10 -8 -29 -15 -40 -15 -12 0 -27 -7 -34 -15 -7 -8 -23 -15 -36 -15
-12 0 -26 -4 -29 -10 -3 -5 -19 -10 -34 -10 -16 0 -34 -7 -41 -15 -7 -8 -23
-15 -36 -15 -12 0 -26 -4 -29 -10 -3 -5 -16 -10 -29 -10 -12 0 -31 -7 -42 -15
-29 -22 -34 -18 -34 20 0 23 -6 38 -16 42 -8 3 -13 12 -10 20 3 8 -1 24 -9 36
-8 12 -15 31 -15 43 0 12 -7 27 -15 34 -8 7 -15 23 -15 36 0 12 -4 26 -10 29
-5 3 -10 16 -10 28 0 12 -7 31 -15 41 -8 11 -15 32 -15 47 0 15 -4 31 -10 34
-5 3 -10 19 -10 35 0 15 -7 30 -15 34 -9 3 -15 19 -15 41 0 24 -4 35 -15 35
-10 0 -15 10 -15 29 0 17 -4 33 -10 36 -5 3 -10 19 -10 35 0 15 -7 30 -15 34
-9 3 -15 19 -15 41 0 19 -4 35 -10 35 -5 0 -10 11 -10 24 0 14 -7 31 -15 40
-8 8 -15 24 -15 36 0 12 -7 28 -15 36 -8 9 -15 26 -15 39 0 13 -4 27 -10 30
-5 3 -10 20 -10 36 0 17 -6 32 -15 35 -8 4 -15 19 -15 34 0 16 -4 32 -10 35
-5 3 -10 19 -10 35 0 15 -7 30 -15 34 -9 3 -15 19 -15 41 0 26 -4 35 -16 35
-11 0 -15 6 -11 20 3 10 -1 27 -9 37 -7 10 -14 30 -14 44 0 15 -7 29 -15 33
-9 3 -15 19 -15 41 0 19 -4 35 -10 35 -5 0 -10 11 -10 24 0 14 -7 31 -15 40
-8 8 -15 26 -15 39 0 14 -5 27 -10 29 -6 2 -12 19 -15 38 -2 19 -9 36 -15 38
-5 2 -10 17 -10 33 0 17 -6 32 -15 35 -8 4 -15 19 -15 34 0 16 -4 32 -10 35
-5 3 -10 19 -10 35 0 15 -7 30 -15 34 -9 3 -15 18 -15 40 0 20 -6 36 -14 39
-8 3 -12 14 -10 25 3 10 -2 24 -10 31 -9 8 -16 26 -16 41 0 16 -7 30 -15 34
-9 3 -15 19 -15 41 0 19 -4 35 -10 35 -5 0 -10 10 -10 23 0 13 -7 32 -15 43
-8 10 -15 29 -15 42 0 12 -4 22 -10 22 -5 0 -10 8 -10 18 0 9 -7 30 -15 46 -8
15 -15 35 -15 43 0 8 -7 21 -15 29 -8 9 -15 26 -15 39 0 13 -4 27 -10 30 -5 3
-10 19 -10 34 0 16 -6 34 -14 40 -23 19 -27 51 -6 51 10 0 23 7 30 15 7 8 23
15 36 15 12 0 26 5 29 10 3 6 16 10 29 10 12 0 31 7 42 15 10 8 29 15 41 15
12 0 25 5 28 10 3 6 14 10 23 10 9 0 30 7 46 15 15 8 36 15 46 15 10 0 23 7
30 15 7 8 23 15 36 15 12 0 26 5 29 10 3 6 19 10 34 10 16 0 34 7 41 15 7 8
23 15 36 15 12 0 26 5 29 10 3 6 17 10 29 10 13 0 29 7 36 15 7 8 25 15 40 15
15 0 33 7 40 15 7 8 23 15 36 15 12 0 26 5 29 10 3 6 19 10 34 10 16 0 34 7
41 15 7 8 23 15 36 15 12 0 26 5 29 10 3 6 16 10 29 10 12 0 31 7 42 15 10 8
27 15 36 15 9 0 31 8 50 17 62 31 68 33 92 33 13 0 29 7 36 15 7 8 23 15 36
15 12 0 26 5 29 10 3 6 16 10 29 10 12 0 31 7 42 15 10 8 29 15 40 15 12 0 27
7 34 15 7 8 23 15 36 15 12 0 26 5 29 10 3 6 19 10 34 10 16 0 34 7 41 15 7 8
23 15 36 15 12 0 26 5 29 10 3 6 19 10 34 10 16 0 34 7 41 15 7 8 21 15 30 15
10 0 33 8 52 17 62 31 68 33 92 33 13 0 29 7 36 15 7 8 23 15 36 15 12 0 26 5
29 10 3 6 17 10 30 10 20 0 40 8 105 41 8 4 27 8 43 8 23 1 27 -3 27 -26z
m-2510 -1448 c0 -14 5 -25 10 -25 6 0 10 -16 10 -35 0 -22 6 -38 15 -41 8 -4
15 -17 15 -29 0 -13 5 -27 10 -30 6 -3 10 -19 10 -34 0 -16 7 -34 15 -41 8 -7
15 -25 15 -40 0 -16 7 -30 16 -34 9 -3 14 -12 11 -20 -3 -7 1 -26 9 -41 8 -15
14 -35 14 -44 0 -10 7 -26 15 -37 8 -10 15 -29 15 -41 0 -13 5 -23 10 -23 6 0
10 -13 10 -29 0 -16 7 -34 15 -41 8 -7 15 -22 15 -34 0 -11 7 -30 15 -40 8
-11 15 -30 15 -43 0 -13 5 -23 10 -23 6 0 10 -16 10 -35 0 -22 6 -38 15 -41 8
-4 15 -17 15 -29 0 -13 5 -27 10 -30 6 -3 10 -19 10 -34 0 -16 7 -34 15 -41 8
-7 15 -25 15 -40 0 -16 6 -30 12 -32 7 -3 13 -20 14 -38 1 -19 7 -36 13 -38 6
-2 11 -14 11 -26 0 -12 7 -31 15 -42 8 -10 15 -29 15 -41 0 -13 5 -23 10 -23
6 0 10 -16 10 -35 0 -22 6 -38 15 -41 8 -4 15 -16 15 -28 1 -11 7 -32 14 -45
8 -14 12 -30 9 -36 -2 -7 3 -18 12 -25 8 -7 15 -28 15 -46 0 -22 5 -34 14 -34
13 0 17 -10 32 -90 4 -19 13 -39 20 -43 8 -4 14 -14 14 -22 0 -16 -54 -45 -85
-45 -13 0 -28 -7 -35 -15 -7 -8 -23 -15 -36 -15 -12 0 -26 -4 -29 -10 -3 -5
-16 -10 -28 -10 -12 0 -31 -7 -41 -15 -11 -8 -28 -15 -38 -15 -10 0 -26 -4
-36 -9 -108 -53 -134 -57 -149 -24 -7 15 -13 37 -13 50 0 13 -7 26 -15 29 -8
4 -15 17 -15 29 0 13 -4 27 -10 30 -5 3 -10 19 -10 34 0 16 -7 34 -15 41 -8 7
-15 23 -15 36 0 24 -2 31 -34 91 -9 17 -16 38 -16 46 0 8 -7 28 -15 43 -8 16
-15 37 -15 46 0 9 -4 20 -10 23 -5 3 -10 17 -10 29 0 13 -7 29 -15 36 -8 7
-15 25 -15 41 0 16 -4 29 -10 29 -5 0 -10 10 -10 23 0 13 -7 32 -15 43 -8 10
-15 31 -15 45 0 15 -7 32 -15 39 -8 7 -15 21 -15 31 0 10 -4 21 -10 24 -5 3
-10 21 -10 40 0 20 -6 35 -15 39 -9 3 -15 18 -15 35 0 16 -4 33 -10 36 -5 3
-10 17 -10 29 0 13 -7 29 -15 36 -8 7 -15 25 -15 41 0 16 -4 29 -10 29 -5 0
-13 18 -16 40 -4 22 -10 40 -15 40 -5 0 -9 11 -9 24 0 14 -7 31 -15 40 -8 8
-15 26 -15 40 0 14 -4 26 -10 26 -5 0 -10 13 -10 29 0 16 -7 34 -15 41 -8 7
-15 25 -15 40 0 15 -7 33 -15 40 -9 7 -14 19 -11 26 3 8 -1 20 -9 28 -8 8 -15
28 -15 44 0 17 -6 32 -15 36 -9 3 -15 18 -15 35 0 25 5 32 28 36 15 4 35 10
44 16 10 5 26 9 37 9 10 0 24 7 31 15 7 8 23 15 36 15 12 0 26 5 29 10 3 6 16
10 29 10 12 0 31 7 42 15 10 8 29 15 42 15 13 0 30 7 38 15 9 8 26 15 39 15
13 0 27 5 30 10 3 6 15 10 26 10 14 0 19 -7 19 -25z m2871 -1957 c7 -18 16
-35 19 -38 9 -7 164 -243 172 -260 3 -8 14 -24 25 -36 24 -27 42 -55 49 -76 4
-10 10 -18 14 -18 4 0 15 -18 26 -40 10 -22 22 -40 27 -40 4 0 7 -6 7 -14 0
-7 13 -29 30 -47 16 -19 30 -39 30 -45 0 -6 11 -21 25 -34 14 -13 25 -29 25
-37 0 -7 7 -21 16 -30 25 -29 84 -122 84 -133 0 -6 6 -13 14 -16 7 -3 21 -23
31 -45 10 -21 22 -39 27 -39 4 0 8 -4 8 -10 0 -5 18 -35 40 -67 22 -32 46 -66
53 -77 6 -10 24 -36 40 -57 15 -21 27 -42 27 -45 0 -4 11 -22 25 -40 14 -18
25 -36 25 -41 0 -4 11 -20 25 -35 14 -15 25 -30 25 -33 0 -4 11 -21 25 -39 14
-18 25 -36 25 -40 0 -4 11 -22 25 -40 14 -18 25 -44 25 -57 0 -13 7 -33 15
-43 19 -25 19 -85 0 -110 -8 -11 -15 -28 -15 -38 0 -43 -91 -158 -125 -158 -8
0 -16 -4 -19 -9 -3 -5 -22 -12 -42 -16 -20 -3 -44 -11 -54 -18 -14 -8 -31 -7
-70 6 -29 9 -61 17 -71 17 -11 0 -19 5 -19 10 0 6 -6 10 -14 10 -20 0 -101 85
-120 125 -10 19 -21 35 -25 35 -5 0 -14 14 -21 30 -7 17 -18 34 -24 38 -6 4
-20 24 -31 45 -11 20 -22 37 -25 37 -3 0 -14 17 -25 37 -11 21 -26 44 -33 53
-25 29 -82 120 -82 130 0 5 -4 10 -10 10 -5 0 -19 18 -30 40 -11 22 -24 40
-28 40 -4 0 -13 13 -20 29 -7 16 -24 42 -37 57 -14 16 -25 34 -25 41 0 6 -6
18 -12 25 -21 22 -98 139 -98 148 0 5 -3 10 -8 12 -4 2 -40 53 -79 113 -84
128 -81 123 -133 198 -22 32 -40 62 -40 67 0 4 -3 10 -7 12 -5 2 -24 28 -44
58 -98 151 -115 175 -121 178 -5 2 -8 8 -8 13 0 6 -18 35 -40 65 -43 57 -44
74 -5 74 13 0 27 5 30 10 3 6 14 10 23 10 9 0 30 7 46 15 15 8 36 15 46 15 10
0 23 7 30 15 7 8 23 15 36 15 12 0 26 5 29 10 3 6 19 10 34 10 16 0 34 7 41
15 7 8 23 15 36 15 12 0 26 5 29 10 3 6 16 10 29 10 12 0 31 7 42 15 10 8 29
15 41 15 12 0 25 5 28 10 11 18 22 11 36 -22z"/>
<path d="M20050 14319 c-25 -5 -56 -14 -70 -20 -30 -15 -299 -287 -980 -992
-63 -65 -163 -168 -222 -228 -60 -60 -108 -116 -108 -124 0 -8 -4 -15 -9 -15
-8 0 -14 -22 -27 -111 -4 -22 -1 -39 5 -43 6 -4 11 -23 11 -41 0 -27 10 -44
43 -79 121 -128 276 -127 400 2 23 23 92 94 152 156 61 61 207 212 325 335
118 123 333 343 477 489 145 147 263 273 263 280 0 7 7 15 15 18 8 4 15 15 15
27 0 11 5 35 12 53 13 37 -3 128 -31 174 -32 54 -101 102 -163 115 -18 4 -40
8 -48 10 -8 1 -35 -1 -60 -6z"/>
<path d="M21120 11915 c-14 -8 -35 -14 -47 -15 -12 0 -25 -4 -28 -10 -3 -5
-16 -10 -29 -10 -12 0 -31 -7 -42 -15 -10 -8 -27 -15 -36 -15 -9 0 -31 -8 -50
-17 -62 -31 -68 -33 -92 -33 -13 0 -29 -7 -36 -15 -7 -8 -25 -15 -41 -15 -16
0 -29 -4 -29 -10 0 -5 -10 -10 -23 -10 -13 0 -32 -7 -43 -15 -10 -8 -28 -15
-39 -15 -11 0 -29 -7 -39 -15 -11 -8 -30 -15 -43 -15 -13 0 -23 -4 -23 -10 0
-5 -13 -10 -29 -10 -16 0 -34 -7 -41 -15 -7 -8 -19 -15 -27 -15 -22 0 -113
-31 -119 -41 -3 -5 -15 -9 -27 -9 -12 0 -31 -7 -41 -15 -11 -8 -30 -15 -42
-15 -13 0 -26 -4 -29 -10 -3 -5 -16 -10 -28 -10 -12 0 -31 -7 -41 -15 -11 -8
-30 -15 -42 -15 -13 0 -26 -4 -29 -10 -3 -5 -17 -10 -29 -10 -13 0 -29 -7 -36
-15 -7 -8 -20 -15 -30 -15 -10 0 -31 -7 -46 -15 -16 -8 -37 -15 -46 -15 -9 0
-20 -4 -23 -10 -3 -5 -17 -10 -30 -10 -13 0 -26 -4 -29 -9 -4 -5 -32 -17 -64
-26 -149 -45 -252 -131 -252 -212 0 -17 -4 -35 -10 -38 -5 -3 -10 -17 -10 -31
0 -13 5 -24 10 -24 6 0 10 -17 10 -39 0 -22 6 -44 15 -51 8 -7 15 -17 15 -22
0 -14 51 -62 85 -80 53 -28 125 -50 148 -45 38 9 129 42 170 63 16 8 37 14 47
14 10 0 33 8 52 17 62 31 68 33 92 33 13 0 29 7 36 15 7 8 23 15 36 15 12 0
26 5 29 10 3 6 16 10 28 10 12 0 31 7 41 15 11 8 30 15 42 15 12 0 27 7 34 15
7 8 23 15 36 15 12 0 26 5 29 10 3 6 17 10 31 10 14 0 32 7 40 15 9 8 26 15
39 15 13 0 27 5 30 10 3 6 16 10 28 10 12 0 31 7 41 15 11 8 28 15 37 15 10 0
32 8 51 17 62 31 68 33 92 33 13 0 29 7 36 15 7 8 23 15 36 15 12 0 26 5 29
10 3 6 16 10 28 10 12 0 31 7 41 15 11 8 29 15 40 15 12 0 30 7 40 15 11 8 30
15 42 15 13 0 26 5 29 10 3 6 17 10 29 10 13 0 29 7 36 15 7 8 23 15 36 15 12
0 26 5 29 10 3 6 16 10 28 10 12 0 31 7 41 15 11 8 26 15 34 15 15 0 79 45
104 75 10 11 17 27 18 36 0 9 7 19 15 23 12 4 15 25 15 95 0 66 -4 93 -15 105
-8 8 -15 18 -15 23 0 15 -65 79 -95 95 -99 51 -141 58 -185 33z"/>
<path d="M4335 11420 c-3 -5 -14 -10 -23 -10 -25 0 -112 -85 -112 -109 0 -10
-4 -21 -10 -23 -20 -7 -23 -94 -5 -142 10 -25 22 -46 26 -46 5 0 9 -6 9 -14 0
-14 42 -49 89 -73 18 -10 502 -13 2321 -13 2171 0 2300 1 2329 18 17 9 31 20
31 25 0 4 5 7 10 7 15 0 50 38 50 54 0 7 7 19 15 26 23 19 20 124 -6 178 -25
51 -85 112 -110 112 -10 0 -21 5 -24 10 -4 7 -780 10 -2295 10 -1515 0 -2291
-3 -2295 -10z"/>
<path d="M23745 11420 c-3 -5 -15 -10 -26 -10 -23 0 -119 -90 -119 -113 0 -9
-4 -19 -10 -22 -5 -3 -10 -30 -10 -60 0 -30 5 -57 10 -60 6 -3 10 -15 10 -25
0 -21 40 -89 53 -90 5 0 23 -11 41 -25 l33 -25 2300 0 c2065 0 2303 2 2331 16
40 20 102 79 102 98 0 8 5 16 11 18 6 2 13 30 16 63 4 47 0 70 -16 106 -23 52
-91 119 -120 119 -11 0 -23 5 -26 10 -4 7 -778 10 -2290 10 -1512 0 -2286 -3
-2290 -10z"/>
<path d="M5425 9630 c-3 -5 -13 -10 -21 -10 -19 0 -94 -69 -94 -86 0 -6 -7
-17 -15 -24 -11 -9 -15 -33 -15 -90 0 -57 4 -81 15 -90 8 -7 15 -17 15 -23 0
-15 61 -71 99 -90 32 -16 158 -17 1771 -17 1927 0 1763 -6 1834 68 20 20 36
40 36 45 0 5 7 15 15 23 10 11 15 36 15 84 0 48 -5 73 -15 84 -8 8 -15 21 -15
29 0 15 -63 71 -105 93 -23 12 -289 14 -1771 14 -1151 0 -1745 -3 -1749 -10z"/>
<path d="M23700 9618 c-19 -11 -41 -29 -49 -41 -8 -11 -22 -27 -33 -36 -10 -8
-18 -23 -18 -33 0 -9 -4 -20 -10 -23 -5 -3 -10 -33 -10 -65 0 -32 5 -62 10
-65 6 -3 10 -13 10 -22 0 -21 90 -113 111 -113 10 0 21 -4 24 -10 4 -7 596
-10 1744 -10 1504 0 1742 2 1767 15 16 8 50 34 77 58 37 35 47 51 47 75 0 18
5 32 10 32 6 0 10 18 10 40 0 22 -4 40 -10 40 -5 0 -10 14 -10 31 0 23 -12 43
-47 80 -26 27 -55 49 -64 49 -10 0 -21 5 -24 10 -4 7 -599 10 -1753 9 -1739 0
-1747 -1 -1782 -21z"/>
<path d="M20090 9525 c-7 -8 -18 -15 -24 -15 -17 0 -88 -79 -110 -122 -15 -30
-18 -51 -14 -110 3 -40 11 -74 17 -76 6 -2 11 -12 11 -23 0 -20 86 -109 106
-109 6 0 17 -7 24 -15 9 -10 32 -15 76 -15 34 0 66 -4 69 -10 4 -6 61 -10 138
-10 96 -1 137 -4 150 -14 13 -10 54 -14 139 -15 66 -1 130 -7 140 -12 11 -6
80 -13 154 -16 74 -3 137 -10 140 -15 3 -4 61 -8 130 -8 77 0 134 -5 147 -12
25 -13 210 -27 456 -34 132 -4 170 -2 195 10 43 21 116 93 116 115 0 11 7 21
15 25 23 8 21 154 -2 197 -20 35 -98 119 -112 119 -5 0 -22 7 -37 15 -16 8
-48 15 -71 15 -23 0 -45 5 -48 10 -4 6 -59 10 -131 10 -74 0 -134 5 -147 11
-19 11 -96 18 -422 38 -71 4 -148 13 -170 19 -22 6 -88 12 -147 12 -59 0 -109
4 -112 8 -3 5 -66 12 -140 15 -74 3 -143 10 -154 16 -13 7 -89 11 -195 11
-143 0 -177 -3 -187 -15z"/>
<path d="M4286 7825 c-20 -14 -41 -25 -45 -25 -15 0 -71 -127 -71 -161 0 -19
7 -47 15 -63 8 -15 13 -32 10 -36 -8 -12 96 -110 116 -110 10 0 21 -4 24 -10
8 -13 4558 -14 4583 -1 9 5 24 12 32 16 53 21 77 46 112 115 23 44 25 152 3
170 -8 7 -15 19 -15 27 0 17 -54 68 -94 88 -25 13 -333 15 -2331 15 l-2302 0
-37 -25z"/>
<path d="M23705 7837 c-53 -31 -105 -90 -105 -121 0 -8 -4 -18 -10 -21 -5 -3
-10 -33 -10 -65 0 -32 5 -62 10 -65 6 -3 10 -13 10 -22 0 -21 100 -113 122
-113 9 0 20 -4 23 -10 4 -7 778 -10 2290 -10 1512 0 2286 3 2290 10 3 6 14 10
23 10 24 0 99 75 124 123 16 33 19 53 15 100 -3 33 -10 63 -15 66 -5 3 -12 16
-16 29 -4 12 -12 22 -17 22 -5 0 -9 7 -9 15 0 8 -7 15 -15 15 -8 0 -15 4 -15
9 0 5 -14 17 -32 25 -28 14 -258 16 -2337 15 -1720 -1 -2311 -4 -2326 -12z"/>
<path d="M150 2055 c-7 -8 -18 -15 -24 -15 -13 0 -56 -53 -56 -69 0 -5 -9 -13
-20 -16 -20 -6 -20 -15 -20 -901 0 -837 1 -895 18 -915 49 -59 95 -99 112 -99
11 0 29 -9 40 -20 20 -20 33 -20 585 -20 368 0 565 3 565 10 0 5 21 20 46 32
27 12 58 38 75 61 25 35 29 49 29 107 0 51 -4 69 -15 74 -8 3 -15 13 -15 23 0
23 -64 68 -110 78 -19 5 -223 10 -452 12 l-418 3 0 744 c0 640 -2 748 -15 772
-8 16 -15 36 -15 45 0 16 -49 65 -92 92 -37 23 -199 24 -218 2z"/>
<path d="M2120 2055 c-7 -8 -16 -15 -21 -15 -15 0 -59 -47 -59 -63 0 -8 -5
-17 -11 -19 -6 -2 -12 -17 -13 -33 -1 -17 -6 -37 -11 -45 -14 -21 -19 -1658
-5 -1675 5 -6 13 -33 17 -60 4 -36 15 -57 44 -89 21 -22 39 -44 39 -48 0 -5
56 -8 125 -8 l125 0 30 33 c16 17 30 37 30 43 0 7 7 15 16 18 10 4 14 12 10
22 -3 8 1 22 9 30 13 14 15 125 15 877 0 775 -2 865 -16 885 -9 13 -14 26 -10
29 11 11 -24 62 -67 97 -44 36 -45 36 -139 36 -73 0 -99 -4 -108 -15z"/>
<path d="M3614 2055 c-10 -8 -36 -15 -56 -15 -20 0 -40 -4 -43 -10 -3 -5 -17
-10 -29 -10 -13 0 -29 -7 -36 -15 -7 -8 -19 -15 -28 -15 -31 0 -177 -109 -212
-159 -19 -28 -38 -50 -42 -51 -5 0 -8 -9 -8 -20 0 -11 -7 -23 -15 -26 -8 -4
-15 -14 -15 -24 0 -9 -7 -32 -16 -49 -14 -27 -16 -59 -12 -189 3 -109 8 -157
16 -160 7 -2 12 -15 12 -28 0 -13 4 -24 9 -24 5 0 13 -10 17 -22 17 -59 236
-238 289 -238 7 0 18 -7 25 -15 7 -8 23 -15 36 -15 12 0 26 -5 29 -10 3 -5 16
-10 29 -10 12 0 31 -7 42 -15 10 -8 33 -15 51 -15 17 0 34 -4 37 -9 4 -5 29
-12 56 -16 27 -4 52 -11 56 -16 3 -5 24 -9 47 -9 23 0 51 -7 61 -15 11 -8 34
-15 52 -15 18 0 36 -4 39 -10 3 -5 17 -10 29 -10 13 0 29 -7 36 -15 7 -8 20
-15 30 -15 9 0 40 -23 67 -51 44 -45 51 -58 57 -104 7 -58 1 -106 -17 -145
-14 -30 -61 -80 -75 -80 -5 0 -12 -7 -16 -15 -3 -8 -15 -15 -26 -15 -11 0 -20
-4 -20 -10 0 -5 -10 -10 -22 -10 -13 0 -36 -7 -52 -15 -32 -17 -251 -22 -261
-6 -3 5 -20 13 -37 17 -18 3 -41 12 -53 18 -29 16 -125 117 -125 132 0 7 -11
34 -25 60 -14 26 -25 53 -25 60 0 8 -4 14 -10 14 -5 0 -10 9 -10 20 0 11 -7
23 -15 26 -8 4 -15 11 -15 16 0 15 -57 68 -73 68 -8 0 -20 7 -27 15 -16 19
-90 20 -116 0 -10 -8 -26 -15 -34 -15 -21 -1 -90 -62 -90 -80 0 -8 -7 -24 -15
-34 -20 -26 -19 -122 0 -160 8 -15 15 -41 15 -57 0 -17 6 -32 15 -35 8 -4 15
-17 15 -30 0 -13 4 -24 10 -24 5 0 18 -17 29 -39 23 -45 140 -171 158 -171 7
0 13 -3 13 -8 0 -4 9 -12 19 -17 91 -47 116 -61 119 -67 2 -5 17 -8 33 -8 18
0 33 -7 41 -20 12 -19 24 -20 338 -20 314 0 326 1 338 20 7 11 22 20 35 21 12
0 49 16 82 35 33 18 68 37 78 40 9 3 17 10 17 15 0 5 5 9 11 9 7 0 42 31 79
70 69 70 130 164 130 199 0 11 5 21 12 23 22 8 49 261 29 281 -6 6 -11 32 -11
57 0 25 -7 55 -15 66 -8 10 -15 29 -15 42 0 12 -4 22 -9 22 -5 0 -13 9 -16 21
-4 12 -15 29 -25 39 -10 10 -19 21 -21 26 -10 24 -128 118 -171 137 -26 11
-48 24 -48 29 0 4 -6 8 -14 8 -8 0 -29 8 -48 17 -63 31 -68 33 -97 33 -16 0
-34 7 -41 15 -7 8 -27 15 -46 15 -18 0 -36 5 -39 10 -3 6 -21 10 -39 10 -18 0
-41 7 -52 15 -10 8 -35 15 -55 15 -20 0 -50 7 -65 15 -16 8 -41 15 -56 15 -15
0 -30 5 -33 10 -3 6 -17 10 -30 10 -40 0 -144 60 -181 106 -30 37 -35 49 -33
91 1 26 7 54 13 62 5 7 15 23 21 35 6 11 23 27 38 34 15 7 27 17 27 23 0 5 8
9 18 9 10 0 23 5 29 11 11 11 122 30 173 30 60 0 174 -19 178 -30 2 -6 9 -11
15 -11 17 -1 47 -28 87 -80 19 -25 38 -46 42 -48 5 -2 8 -14 8 -27 0 -12 7
-25 15 -29 8 -3 15 -12 15 -21 0 -15 39 -63 90 -111 22 -21 35 -24 100 -24 73
0 76 1 123 41 26 22 47 46 47 54 0 7 7 15 15 19 12 4 15 26 15 111 0 85 -3
107 -15 111 -8 4 -15 15 -15 25 0 23 -71 123 -113 159 -16 14 -40 36 -55 49
-14 13 -38 28 -54 33 -15 6 -28 14 -28 19 0 5 -8 9 -19 9 -10 0 -24 7 -31 15
-7 8 -23 15 -36 15 -12 0 -26 5 -29 10 -3 6 -21 10 -38 10 -18 0 -41 7 -51 15
-16 12 -63 15 -246 15 -183 0 -230 -3 -246 -15z"/>
<path d="M9530 2061 c0 -5 -10 -13 -22 -17 -27 -8 -98 -73 -98 -90 0 -7 -5
-14 -12 -16 -8 -3 -14 -33 -16 -79 -2 -41 -8 -78 -13 -84 -13 -13 -12 -1542 1
-1550 6 -3 10 -30 10 -60 0 -34 5 -59 15 -69 8 -8 15 -18 15 -23 0 -4 14 -23
30 -41 l30 -32 114 0 c110 0 116 1 141 25 14 14 25 30 25 35 0 4 5 10 11 12 6
2 17 22 25 43 11 32 14 151 14 608 0 450 3 568 13 565 6 -3 13 -14 15 -25 2
-11 14 -31 28 -44 13 -12 24 -28 24 -35 0 -7 11 -25 25 -40 14 -15 25 -33 25
-40 0 -7 6 -17 13 -21 6 -4 21 -24 31 -43 11 -19 22 -37 25 -40 4 -3 15 -22
26 -42 11 -21 23 -38 27 -38 5 0 8 -5 8 -11 0 -6 11 -25 25 -43 14 -18 25 -37
25 -42 0 -5 10 -20 23 -34 13 -14 32 -41 43 -60 10 -19 25 -39 32 -43 6 -4 12
-13 12 -19 0 -6 11 -26 25 -44 14 -18 25 -36 25 -39 0 -3 11 -21 25 -39 14
-18 25 -38 25 -44 0 -6 6 -15 13 -19 6 -4 21 -24 31 -43 11 -19 28 -44 38 -54
10 -11 18 -23 18 -28 0 -7 57 -95 70 -108 7 -7 29 -43 37 -60 4 -8 9 -17 13
-20 3 -3 21 -25 40 -50 19 -25 44 -52 55 -60 11 -8 30 -25 43 -37 22 -22 31
-23 157 -23 130 0 135 1 160 25 14 14 25 30 25 35 0 6 7 10 15 10 9 0 15 9 15
24 0 13 6 26 13 28 9 4 12 196 12 918 0 722 -3 914 -12 918 -7 2 -13 11 -13
19 0 17 -29 47 -73 76 -35 23 -188 25 -207 2 -7 -8 -17 -15 -22 -15 -15 0 -62
-61 -73 -94 -5 -18 -10 -283 -12 -613 -2 -321 -7 -583 -11 -583 -5 0 -18 19
-31 43 -12 23 -39 67 -61 97 -22 30 -45 66 -52 80 -7 13 -23 35 -35 49 -13 13
-23 28 -23 33 0 5 -11 24 -25 42 -14 18 -25 37 -25 41 0 5 -7 15 -15 24 -9 9
-35 45 -58 81 -23 36 -44 67 -48 70 -3 3 -14 20 -25 39 -10 19 -25 42 -32 50
-20 24 -82 120 -82 126 0 3 -17 29 -38 58 -22 29 -41 57 -43 62 -5 13 -82 128
-90 135 -3 3 -14 21 -25 40 -10 19 -21 37 -24 40 -3 3 -23 32 -45 65 -44 66
-66 88 -127 128 -21 13 -49 17 -123 17 -52 0 -95 -4 -95 -9z"/>
<path d="M15320 2055 c-7 -9 -29 -15 -51 -15 -21 0 -41 -4 -44 -10 -3 -5 -16
-10 -29 -10 -12 0 -31 -7 -42 -15 -10 -8 -27 -15 -36 -15 -10 0 -18 -4 -18 -8
0 -5 -19 -17 -42 -27 -24 -10 -67 -36 -96 -57 -57 -42 -162 -143 -162 -156 0
-5 -8 -17 -19 -28 -31 -33 -75 -108 -73 -122 2 -7 -4 -15 -13 -18 -8 -3 -15
-15 -15 -26 0 -11 -6 -32 -14 -46 -20 -39 -36 -95 -36 -123 0 -14 -6 -31 -12
-37 -22 -22 -49 -422 -29 -422 7 0 11 -31 11 -83 0 -46 5 -88 10 -93 6 -6 13
-31 16 -55 3 -24 9 -48 15 -54 5 -5 9 -21 9 -36 0 -15 7 -32 15 -39 8 -7 15
-19 15 -27 0 -12 28 -68 78 -159 14 -25 160 -176 203 -209 14 -11 42 -29 62
-40 20 -11 37 -23 37 -27 0 -5 6 -8 14 -8 8 0 29 -8 48 -17 61 -30 68 -33 86
-33 10 0 28 -9 40 -20 20 -19 35 -20 337 -20 302 0 316 1 335 20 11 11 28 20
38 20 10 0 37 9 60 20 23 11 52 25 65 30 91 40 223 153 295 252 23 31 42 60
42 63 0 3 11 23 25 43 14 20 25 44 25 53 0 9 7 22 15 29 8 7 15 23 15 36 0 13
4 24 9 24 4 0 11 21 14 46 2 26 9 49 15 53 5 3 12 31 15 61 3 30 10 75 16 100
13 59 14 314 0 365 -6 22 -14 69 -18 104 -4 36 -12 66 -19 69 -7 2 -12 21 -12
43 0 21 -4 39 -10 39 -5 0 -10 9 -10 21 0 26 -11 47 -106 211 -12 20 -142 158
-149 158 -2 0 -16 11 -31 25 -15 14 -33 25 -40 25 -7 0 -17 6 -21 13 -4 7 -25
21 -45 30 -20 10 -40 22 -43 27 -3 6 -17 10 -29 10 -13 0 -29 7 -36 15 -7 8
-23 15 -36 15 -12 0 -26 5 -29 10 -3 6 -23 10 -44 10 -20 0 -46 7 -57 15 -29
22 -496 22 -514 0z m410 -370 c7 -8 22 -15 35 -15 91 0 263 -178 290 -300 4
-17 11 -30 16 -30 5 0 9 -18 9 -40 0 -22 4 -40 9 -40 14 0 23 -266 12 -365
-15 -132 -22 -168 -37 -183 -8 -7 -14 -20 -14 -28 0 -8 -4 -22 -9 -32 -5 -9
-12 -24 -15 -32 -10 -25 -29 -52 -71 -98 -22 -24 -41 -48 -43 -53 -2 -5 -10
-9 -17 -9 -7 0 -15 -7 -19 -15 -3 -8 -12 -15 -21 -15 -8 0 -15 -4 -15 -10 0
-5 -8 -10 -17 -10 -10 0 -27 -7 -37 -15 -11 -8 -30 -15 -42 -15 -13 0 -26 -4
-29 -10 -4 -6 -60 -10 -135 -10 -75 0 -131 4 -135 10 -3 6 -19 10 -34 10 -16
0 -34 7 -41 15 -7 8 -21 15 -31 15 -11 0 -19 5 -19 10 0 6 -6 10 -13 10 -22 0
-112 92 -149 151 -19 30 -40 74 -47 99 -7 25 -18 54 -24 65 -21 39 -30 122
-30 285 0 180 9 267 29 288 8 7 14 27 14 43 0 16 5 29 10 29 6 0 10 8 10 19 0
10 7 24 15 31 8 7 15 21 15 31 0 18 112 141 140 153 8 3 29 15 45 25 17 11 39
20 50 21 11 0 29 7 39 15 29 22 288 22 306 0z"/>
<path d="M18590 2055 c-7 -9 -29 -15 -51 -15 -21 0 -41 -4 -44 -10 -3 -5 -17
-10 -29 -10 -13 0 -29 -7 -36 -15 -7 -8 -19 -15 -27 -15 -44 0 -253 -178 -253
-216 0 -8 -4 -14 -10 -14 -5 0 -10 -9 -10 -19 0 -11 -6 -26 -14 -33 -22 -22
-29 -75 -29 -213 0 -134 7 -189 27 -215 7 -8 21 -32 31 -54 19 -37 158 -176
176 -176 5 0 27 -11 49 -25 22 -14 46 -25 54 -25 7 0 19 -7 26 -15 7 -8 23
-15 36 -15 12 0 26 -4 29 -10 3 -5 19 -10 34 -10 16 0 34 -7 41 -15 7 -8 25
-15 41 -15 16 0 37 -4 47 -10 19 -10 91 -27 165 -39 26 -4 53 -13 59 -19 7 -7
27 -12 44 -12 18 0 36 -4 39 -10 3 -5 15 -10 26 -10 26 0 106 -44 142 -78 55
-52 88 -177 55 -211 -7 -6 -14 -16 -14 -22 -1 -5 -2 -14 -3 -19 -2 -18 -91
-99 -124 -113 -85 -36 -109 -41 -216 -45 -88 -2 -121 0 -146 12 -18 9 -40 16
-49 16 -9 0 -16 5 -16 10 0 6 -6 10 -14 10 -19 0 -106 85 -106 103 0 8 -7 20
-15 27 -8 7 -15 21 -15 31 0 11 -4 19 -10 19 -5 0 -10 8 -10 18 0 9 -7 26 -15
36 -8 11 -15 28 -15 38 0 10 -4 18 -10 18 -5 0 -10 6 -10 13 0 19 -60 74 -105
97 -46 24 -103 26 -131 5 -10 -8 -26 -15 -35 -15 -9 0 -35 -21 -57 -46 l-42
-45 0 -120 c0 -97 3 -121 15 -125 8 -4 15 -17 15 -30 0 -13 5 -24 10 -24 6 0
10 -7 10 -16 0 -9 14 -33 30 -54 17 -21 30 -40 30 -44 0 -18 154 -152 200
-173 8 -4 21 -13 28 -20 7 -7 22 -13 32 -13 10 0 22 -4 25 -10 3 -6 17 -10 31
-10 13 0 29 -9 36 -20 12 -19 24 -20 330 -20 305 0 319 1 338 20 11 11 31 20
44 20 14 0 28 4 31 10 3 6 14 10 24 10 10 0 24 7 31 15 7 8 21 15 31 15 11 0
19 4 19 10 0 5 15 16 33 25 35 16 141 117 160 151 6 10 17 25 24 32 7 7 13 20
13 28 0 8 5 14 10 14 6 0 10 8 10 19 0 10 6 24 14 30 19 16 27 73 33 235 2 90
0 143 -6 149 -6 6 -11 25 -11 43 0 17 -7 37 -15 44 -8 7 -15 19 -15 27 0 40
-170 213 -209 213 -6 0 -11 5 -11 10 0 6 -8 10 -19 10 -10 0 -24 7 -31 15 -7
8 -20 15 -29 15 -9 0 -25 7 -35 15 -11 8 -30 15 -42 15 -13 0 -26 5 -29 10 -3
6 -16 10 -29 10 -12 0 -31 7 -42 15 -10 8 -33 15 -51 15 -17 0 -35 5 -38 10
-3 6 -23 10 -44 10 -20 0 -46 7 -57 15 -10 8 -35 15 -54 15 -19 0 -44 7 -54
15 -11 8 -34 15 -52 15 -18 0 -36 5 -39 10 -3 6 -19 10 -34 10 -16 0 -34 7
-41 15 -7 8 -18 15 -25 15 -35 0 -108 58 -130 104 -17 33 -20 92 -5 101 6 3
10 14 10 24 0 23 85 101 110 101 10 0 20 5 22 11 4 11 114 30 168 30 60 0 174
-19 178 -30 2 -6 10 -11 18 -11 20 0 98 -82 118 -124 9 -19 21 -38 26 -41 6
-3 10 -15 10 -26 0 -10 5 -19 10 -19 6 0 10 -6 10 -13 0 -13 57 -76 93 -104
24 -19 161 -17 177 2 7 8 18 15 24 15 20 0 71 71 88 123 17 52 15 137 -3 137
-5 0 -9 16 -9 35 0 22 -6 38 -15 41 -8 4 -15 14 -15 24 0 22 -156 190 -176
190 -8 0 -14 5 -14 10 0 6 -6 10 -14 10 -7 0 -19 7 -26 15 -7 8 -20 15 -30 15
-10 0 -23 7 -30 15 -7 8 -23 15 -36 15 -13 0 -24 5 -24 10 0 6 -15 10 -32 10
-18 1 -44 7 -58 15 -38 22 -482 22 -500 0z"/>
<path d="M20350 2055 c-7 -8 -17 -15 -22 -15 -16 0 -68 -57 -68 -75 0 -8 -7
-26 -15 -39 -13 -20 -15 -132 -13 -902 3 -959 1 -920 61 -974 15 -13 27 -30
27 -37 0 -10 32 -13 135 -13 104 0 135 3 135 13 0 7 13 24 30 37 16 14 29 31
30 38 0 7 7 23 15 36 14 20 15 75 13 395 l-3 371 413 0 412 0 0 -385 c0 -231
4 -385 9 -385 5 0 13 -10 17 -22 4 -12 20 -35 35 -51 16 -16 29 -33 29 -38 0
-5 55 -9 124 -9 l124 0 41 40 c23 23 41 49 41 60 0 10 6 20 13 22 9 4 13 195
15 900 2 790 1 898 -13 911 -8 9 -15 24 -15 34 -1 10 -25 37 -54 61 l-53 42
-95 0 -95 0 -44 -42 c-81 -79 -79 -67 -79 -439 l0 -329 -411 2 -411 3 2 328
c1 321 0 329 -21 365 -25 42 -51 69 -91 95 -37 23 -199 25 -218 2z"/>
<path d="M23270 2055 c-7 -8 -19 -15 -27 -15 -26 0 -111 -97 -139 -157 -35
-76 -41 -93 -48 -125 -4 -16 -11 -28 -16 -28 -6 0 -10 -11 -10 -24 0 -14 -4
-28 -10 -31 -5 -3 -10 -17 -10 -29 0 -13 -7 -29 -15 -36 -8 -7 -15 -23 -15
-35 0 -13 -5 -25 -11 -27 -5 -2 -12 -19 -15 -38 -3 -19 -10 -36 -15 -38 -5 -2
-9 -13 -9 -24 0 -10 -7 -26 -15 -34 -8 -9 -15 -26 -15 -39 0 -13 -4 -27 -10
-30 -5 -3 -10 -15 -10 -26 0 -11 -7 -27 -15 -35 -8 -9 -15 -26 -15 -38 0 -13
-7 -29 -15 -36 -9 -7 -14 -19 -11 -26 3 -7 -2 -18 -10 -24 -8 -7 -14 -24 -14
-39 0 -15 -5 -32 -12 -39 -14 -14 -38 -80 -38 -105 0 -10 -7 -20 -15 -23 -8
-4 -15 -17 -15 -31 0 -14 -7 -39 -16 -56 -31 -59 -34 -67 -34 -86 0 -10 -7
-24 -15 -31 -8 -7 -15 -23 -15 -36 0 -13 -4 -24 -10 -24 -5 0 -10 -13 -10 -29
0 -16 -7 -36 -15 -45 -8 -8 -15 -24 -15 -35 0 -12 -4 -21 -9 -21 -5 0 -12 -18
-16 -40 -4 -22 -11 -40 -16 -40 -5 0 -9 -11 -9 -25 0 -14 -4 -25 -10 -25 -5 0
-12 -16 -16 -35 -3 -19 -10 -38 -15 -41 -5 -3 -9 -15 -9 -27 0 -12 -7 -31 -15
-41 -17 -22 -21 -166 -6 -166 5 0 13 -9 16 -20 4 -12 25 -39 47 -60 l40 -40
116 0 117 0 35 63 c51 89 84 162 94 210 4 15 11 27 16 27 6 0 10 11 10 24 0
14 5 28 10 31 6 3 10 16 10 29 0 12 7 31 15 42 8 10 15 27 15 37 0 16 25 17
390 17 l390 0 0 -25 c0 -14 5 -25 10 -25 6 0 10 -10 10 -22 0 -13 7 -32 15
-42 8 -11 15 -30 15 -43 0 -13 5 -23 10 -23 6 0 10 -9 10 -21 0 -11 6 -33 14
-47 8 -15 28 -56 45 -92 35 -74 53 -100 69 -100 6 0 14 -9 17 -20 6 -18 15
-20 119 -20 l113 0 37 33 c20 18 36 39 36 45 0 7 5 12 10 12 6 0 10 9 10 19 0
11 5 23 10 26 6 3 10 31 10 61 0 30 -4 54 -10 54 -5 0 -10 18 -10 40 0 22 -4
40 -10 40 -5 0 -10 16 -10 35 0 22 -6 38 -15 41 -8 4 -15 17 -15 30 0 13 -4
24 -10 24 -5 0 -12 16 -16 35 -3 19 -10 38 -15 41 -5 3 -9 14 -9 25 0 11 -7
27 -15 35 -8 9 -15 26 -15 40 0 13 -4 24 -10 24 -5 0 -10 10 -10 23 0 13 -5
28 -12 35 -12 12 -35 69 -45 110 -3 12 -9 22 -14 22 -5 0 -9 10 -9 23 0 13 -7
32 -15 43 -8 10 -15 29 -15 42 0 12 -4 22 -10 22 -5 0 -10 8 -10 18 0 9 -7 26
-15 36 -8 11 -15 28 -15 38 0 18 -3 26 -34 85 -9 17 -16 40 -16 51 0 11 -7 25
-15 32 -8 7 -15 21 -15 31 0 11 -4 19 -10 19 -5 0 -10 15 -10 34 0 21 -6 36
-15 40 -8 3 -15 17 -15 31 0 14 -4 25 -10 25 -5 0 -10 10 -10 23 0 13 -7 32
-15 43 -8 10 -15 29 -15 42 0 12 -4 22 -10 22 -5 0 -12 16 -16 35 -3 19 -10
35 -15 35 -5 0 -9 10 -9 23 0 12 -7 31 -15 41 -8 11 -15 30 -15 42 0 13 -4 26
-10 29 -5 3 -10 14 -10 24 0 10 -7 24 -15 31 -8 7 -15 23 -15 36 0 12 -4 26
-10 29 -5 3 -17 21 -25 40 -21 43 -92 114 -127 127 -16 6 -28 14 -28 19 0 5
-53 9 -119 9 -93 0 -121 -3 -131 -15z m150 -583 c0 -13 7 -30 15 -38 8 -9 15
-26 15 -39 0 -13 5 -27 10 -30 6 -3 10 -19 10 -34 0 -16 7 -34 15 -41 8 -7 15
-22 15 -34 0 -12 7 -32 16 -44 8 -12 13 -26 10 -31 -3 -5 1 -14 9 -21 8 -7 15
-25 15 -40 0 -15 7 -33 15 -40 8 -7 15 -25 15 -41 0 -15 5 -31 10 -34 6 -3 10
-15 10 -26 0 -11 7 -27 15 -35 8 -9 15 -26 15 -39 0 -13 5 -27 10 -30 33 -21
-11 -25 -245 -25 -140 0 -255 4 -255 9 0 5 7 14 15 21 8 7 15 25 15 41 0 16 5
29 10 29 6 0 10 10 10 23 0 13 7 32 15 43 8 10 15 29 15 42 0 12 5 22 10 22 6
0 10 13 10 29 0 16 7 36 15 45 8 8 15 28 15 44 0 17 5 32 11 34 5 2 12 19 15
38 3 19 10 37 15 38 5 2 9 16 9 32 0 15 7 33 15 40 8 7 15 23 15 36 0 12 5 26
10 29 6 3 10 19 10 34 0 38 19 56 36 33 8 -9 14 -27 14 -40z"/>
<path d="M5162 2025 c-30 -16 -61 -45 -89 -81 -19 -23 -23 -41 -23 -96 0 -38
4 -68 10 -68 5 0 12 -10 15 -23 9 -33 92 -87 136 -87 19 0 40 -5 46 -11 7 -7
84 -9 227 -7 l216 3 0 -767 c0 -506 3 -768 10 -768 6 0 10 -6 10 -14 0 -8 16
-31 35 -52 19 -20 35 -41 35 -45 0 -5 59 -9 130 -9 73 0 130 4 130 9 0 5 15
24 32 42 65 65 63 29 65 849 2 410 3 747 3 750 0 3 96 6 212 6 117 1 233 5
258 9 68 12 123 51 158 112 14 27 16 129 2 138 -5 3 -10 13 -10 21 0 18 -54
69 -94 89 -25 13 -138 15 -760 14 -572 -1 -736 -4 -754 -14z"/>
<path d="M7361 2014 c-43 -23 -63 -44 -88 -93 -10 -18 -13 -216 -13 -891 0
-792 1 -870 17 -901 9 -19 25 -40 34 -47 10 -7 25 -19 33 -27 8 -8 23 -15 33
-15 11 0 29 -9 41 -20 21 -20 35 -20 647 -20 430 0 625 3 625 11 0 5 15 16 33
24 77 35 97 69 97 168 0 75 -2 80 -32 113 -63 66 -40 64 -590 64 l-498 0 0
254 0 255 445 3 c338 2 447 6 457 16 6 6 18 12 25 12 16 0 54 37 71 69 6 13
12 55 12 94 l0 71 -46 42 c-31 29 -58 44 -87 49 -23 4 -229 9 -457 11 l-415 4
-3 210 -2 210 469 0 c302 0 472 4 476 10 3 6 18 10 32 10 17 0 40 15 69 44 44
43 44 44 44 115 0 92 -21 127 -99 169 -18 9 -168 12 -655 11 l-631 0 -44 -25z"/>
<path d="M12640 2030 c0 -5 -8 -10 -17 -10 -21 -1 -49 -23 -81 -64 -18 -24
-22 -41 -22 -106 0 -76 1 -79 35 -114 19 -20 39 -36 44 -36 5 0 14 -6 20 -14
17 -20 79 -27 319 -34 l212 -7 4 -730 c1 -401 6 -748 11 -770 4 -22 16 -49 26
-60 10 -11 32 -35 49 -53 l30 -32 123 0 122 1 25 35 c14 19 30 41 36 47 6 7
14 26 17 42 3 17 10 48 16 70 7 26 11 282 11 747 l0 707 213 5 c235 4 301 11
318 32 6 8 16 14 21 14 5 0 22 14 38 30 22 22 30 40 30 65 0 19 5 35 10 35 6
0 10 11 10 24 0 14 -4 28 -10 31 -5 3 -10 20 -10 36 0 17 -6 32 -15 35 -8 4
-15 12 -15 20 0 8 -7 14 -15 14 -8 0 -15 4 -15 9 0 5 -14 17 -32 25 -27 14
-118 16 -770 16 -485 0 -738 -3 -738 -10z"/>
<path d="M25015 2030 c-3 -5 -14 -10 -25 -10 -10 0 -41 -22 -69 -49 -39 -38
-51 -56 -51 -80 0 -16 -4 -33 -10 -36 -7 -4 -10 -295 -10 -840 0 -545 3 -836
10 -840 6 -3 10 -19 10 -34 0 -27 8 -40 70 -109 l29 -32 126 0 c100 0 125 3
125 14 0 7 11 21 25 30 14 9 25 23 25 31 0 8 4 15 8 15 4 0 16 35 25 78 14 64
17 129 17 390 l0 312 325 0 c277 0 332 2 380 17 30 9 55 21 55 25 0 4 6 8 13
8 8 0 19 11 25 25 6 14 16 25 22 25 15 0 13 147 -2 167 -34 42 -68 67 -118 84
-49 17 -86 19 -377 19 l-323 0 0 220 0 220 408 3 c224 2 421 7 439 11 18 5 50
25 72 46 l41 37 0 87 c0 86 -1 88 -32 117 -68 62 -39 59 -659 59 -368 0 -570
-4 -574 -10z"/>
<path d="M26745 2030 c-3 -5 -14 -10 -24 -10 -23 0 -73 -56 -96 -107 -19 -45
-16 -124 4 -131 6 -2 11 -11 11 -19 0 -16 44 -63 59 -63 5 0 14 -6 20 -14 18
-22 89 -28 324 -30 l217 -1 0 -763 c0 -669 2 -763 15 -768 8 -4 15 -14 15 -25
0 -10 18 -36 41 -59 l41 -40 124 0 c95 0 124 3 124 13 0 7 13 24 30 37 16 14
29 33 30 43 0 10 7 25 15 33 13 13 15 113 15 772 l0 757 216 -3 c143 -2 220 0
227 7 6 6 27 11 47 11 19 0 46 8 60 18 42 28 70 56 70 68 0 6 7 18 16 25 13
11 15 27 12 80 -5 60 -9 71 -43 108 -70 76 -15 71 -831 71 -478 0 -735 -3
-739 -10z"/>
<path d="M28965 2030 c-3 -5 -14 -10 -23 -10 -23 0 -102 -73 -102 -93 0 -9 -4
-19 -10 -22 -7 -4 -10 -309 -10 -881 0 -768 2 -875 15 -880 8 -4 15 -14 15
-24 0 -21 70 -80 94 -80 9 0 25 -9 36 -20 20 -20 33 -20 645 -20 408 0 625 3
625 10 0 5 21 20 46 31 25 12 48 28 51 36 3 7 11 13 18 13 7 0 16 17 20 38 16
91 3 156 -39 194 -65 60 -45 58 -588 58 l-498 0 0 254 0 255 443 3 c484 3 466
1 536 65 34 30 36 37 39 105 3 64 1 78 -19 109 -26 38 -80 69 -122 69 -14 0
-29 5 -32 10 -4 7 -150 10 -423 10 l-417 -1 -3 211 -2 210 469 0 c302 0 472 4
476 10 3 6 17 10 30 10 34 0 79 29 98 63 12 20 17 52 17 107 0 73 -2 81 -28
108 -63 65 -32 62 -723 62 -408 0 -630 -4 -634 -10z"/>
<path d="M31085 2030 c-3 -5 -15 -10 -25 -10 -10 0 -39 -21 -64 -46 -36 -36
-46 -53 -46 -79 0 -18 -6 -35 -12 -37 -18 -6 -19 -1675 -2 -1686 6 -4 11 -23
12 -42 0 -19 6 -36 11 -38 6 -2 11 -9 11 -15 0 -7 14 -27 30 -45 l30 -32 125
0 125 0 30 32 c16 18 30 38 30 44 0 7 7 15 15 18 9 3 15 11 14 18 -2 7 3 32
10 55 8 29 11 143 11 370 l-1 328 73 -1 c77 0 172 -18 226 -41 32 -14 142
-115 142 -131 0 -5 11 -22 25 -38 14 -16 25 -34 25 -40 0 -6 6 -17 14 -23 8
-7 22 -26 31 -44 22 -43 36 -66 60 -102 29 -44 42 -66 61 -102 9 -18 22 -37
30 -44 8 -6 14 -20 14 -29 0 -10 3 -20 8 -22 9 -4 72 -101 72 -111 0 -4 8 -15
18 -25 9 -10 36 -40 59 -65 l43 -47 130 0 c101 0 130 3 130 13 0 8 16 27 35
43 l35 29 0 97 c0 87 -2 99 -20 110 -11 7 -20 23 -20 35 0 12 -4 25 -10 28 -5
3 -10 15 -10 26 0 11 -7 22 -15 25 -8 4 -15 17 -15 30 0 13 -4 24 -10 24 -5 0
-10 5 -10 10 0 6 -13 29 -30 52 -16 22 -30 47 -30 55 0 7 -4 13 -8 13 -5 0
-18 18 -30 39 -12 22 -26 41 -30 43 -4 2 -26 28 -50 59 -48 64 -149 162 -178
173 -19 7 -19 8 1 22 11 8 31 17 45 20 14 3 33 9 42 15 10 5 22 9 28 9 25 0
129 73 195 136 38 37 95 134 95 163 0 10 6 21 13 24 9 3 12 47 12 177 0 130
-3 174 -12 178 -7 2 -13 19 -13 38 0 22 -6 37 -15 40 -8 4 -15 14 -15 25 0 27
-158 183 -207 205 -24 10 -43 21 -43 26 0 4 -10 8 -22 8 -13 0 -32 7 -42 15
-11 8 -34 15 -52 15 -18 0 -36 5 -39 10 -4 6 -188 10 -520 10 -332 0 -516 -4
-520 -10z m755 -340 c10 -5 50 -13 89 -16 39 -4 71 -11 71 -15 0 -5 8 -9 17
-9 21 0 93 -76 93 -99 0 -9 7 -25 15 -35 16 -21 21 -126 6 -126 -5 0 -12 -15
-15 -32 -10 -54 -78 -118 -125 -118 -9 0 -26 -7 -38 -15 -17 -12 -70 -15 -289
-15 l-269 -1 -5 241 c-3 133 -3 244 -1 246 9 9 433 3 451 -6z"/>
</g>
</svg>
